^C:\MAGSHIMIM\YEAR_2\CPP\LESSON_4\HOMEWORK_CLASSWORK\FILES FOR EXERCISE\INHERITANCE\STREAM\FILESTREAM.CPP
/c /ZI /JMC /nologo /W3 /WX- /diagnostics:classic /sdl /Od /D _CRT_SECURE_NO_WARNINGS /Gm- /EHsc /RTC1 /MDd /GS /fp:precise /Zc:wchar_t /Zc:forScope /Zc:inline /Fo"X64\DEBUG\\" /Fd"X64\DEBUG\VC141.PDB" /Gd /TP /FC C:\MAGSHIMIM\YEAR_2\CPP\LESSON_4\HOMEWORK_CLASSWORK\FILES FOR EXERCISE\INHERITANCE\STREAM\FILESTREAM.CPP
^C:\MAGSHIMIM\YEAR_2\CPP\LESSON_4\HOMEWORK_CLASSWORK\FILES FOR EXERCISE\INHERITANCE\STREAM\OUTSTREAM.CPP
/c /ZI /JMC /nologo /W3 /WX- /diagnostics:classic /sdl /Od /D _CRT_SECURE_NO_WARNINGS /Gm- /EHsc /RTC1 /MDd /GS /fp:precise /Zc:wchar_t /Zc:forScope /Zc:inline /Fo"X64\DEBUG\\" /Fd"X64\DEBUG\VC141.PDB" /Gd /TP /FC C:\MAGSHIMIM\YEAR_2\CPP\LESSON_4\HOMEWORK_CLASSWORK\FILES FOR EXERCISE\INHERITANCE\STREAM\OUTSTREAM.CPP
^C:\MAGSHIMIM\YEAR_2\CPP\LESSON_4\HOMEWORK_CLASSWORK\FILES FOR EXERCISE\INHERITANCE\STREAM\MAIN.CPP
/c /ZI /JMC /nologo /W3 /WX- /diagnostics:classic /sdl /Od /D _CRT_SECURE_NO_WARNINGS /Gm- /EHsc /RTC1 /MDd /GS /fp:precise /Zc:wchar_t /Zc:forScope /Zc:inline /Fo"X64\DEBUG\\" /Fd"X64\DEBUG\VC141.PDB" /Gd /TP /FC C:\MAGSHIMIM\YEAR_2\CPP\LESSON_4\HOMEWORK_CLASSWORK\FILES FOR EXERCISE\INHERITANCE\STREAM\MAIN.CPP
^C:\MAGSHIMIM\YEAR_2\CPP\LESSON_4\HOMEWORK_CLASSWORK\FILES FOR EXERCISE\INHERITANCE\STREAM\OUTSTREAMENCRYPTED.CPP
/c /ZI /JMC /nologo /W3 /WX- /diagnostics:classic /sdl /Od /D _CRT_SECURE_NO_WARNINGS /Gm- /EHsc /RTC1 /MDd /GS /fp:precise /Zc:wchar_t /Zc:forScope /Zc:inline /Fo"X64\DEBUG\\" /Fd"X64\DEBUG\VC141.PDB" /Gd /TP /FC C:\MAGSHIMIM\YEAR_2\CPP\LESSON_4\HOMEWORK_CLASSWORK\FILES FOR EXERCISE\INHERITANCE\STREAM\OUTSTREAMENCRYPTED.CPP
